cosas del año pasado/VHDL/simulation/qsim/flipflops.msim.vcd
$comment
	File created using the following command:
		vcd file flipflops.msim.vcd -direction
$end
$date
	Wed Oct 04 17:42:59 2023
$end
$version
	ModelSim Version 10.1d
$end
$timescale
	1ps
$end
$scope module nacho_vlg_vec_tst $end
$var reg 1 ! A $end
$var reg 1 " B $end
$var reg 1 # CLK $end
$var wire 1 $ Q $end
$var wire 1 % sampler $end
$scope module i1 $end
$var wire 1 & gnd $end
$var wire 1 ' vcc $end
$var wire 1 ( unknown $end
$var tri1 1 ) devclrn $end
$var tri1 1 * devpor $end
$var tri1 1 + devoe $end
$var wire 1 , Q~output_o $end
$var wire 1 - CLK~input_o $end
$var wire 1 . CLK~inputclkctrl_outclk $end
$var wire 1 / A~input_o $end
$var wire 1 0 B~input_o $end
$var wire 1 1 Qn~feeder_combout $end
$var wire 1 2 Qn~q $end
$var wire 1 3 J~0_combout $end
$var wire 1 4 J~q $end
$var wire 1 5 K~0_combout $end
$var wire 1 6 K~q $end
$var wire 1 7 Qaux~0_combout $end
$var wire 1 8 Qaux~q $end
$upscope $end
$upscope $end
$enddefinitions $end
#0
$dumpvars
0!
0"
0#
0$
x%
0&
1'
x(
1)
1*
1+
0,
0-
0.
0/
00
01
02
03
04
15
06
07
08
$end
#5000
1#
1-
1.
0%
16
#10000
1"
0#
10
0-
0.
1%
#15000
1#
1-
1.
0%
#20000
1!
0"
0#
1/
00
0-
0.
1%
05
#25000
1#
1-
1.
0%
06
#30000
1"
0#
10
0-
0.
1%
13
#35000
1#
1-
1.
0%
14
17
#40000
0!
0"
0#
0/
00
0-
0.
1%
15
03
#45000
1#
1-
1.
0%
16
04
18
07
11
1,
1$
#50000
1"
0#
10
0-
0.
1%
#55000
1#
1-
1.
0%
12
08
05
13
01
0,
0$
#60000
1!
0"
0#
1/
00
0-
0.
1%
03
#65000
1#
1-
1.
0%
06
02
#70000
1"
0#
10
0-
0.
1%
13
#75000
1#
1-
1.
0%
14
17
#80000
0!
0"
0#
0/
00
0-
0.
1%
15
03
#85000
1#
1-
1.
0%
16
04
18
07
11
1,
1$
#90000
1"
0#
10
0-
0.
1%
#95000
1#
1-
1.
0%
12
08
05
13
01
0,
0$
#100000
1!
0"
0#
1/
00
0-
0.
1%
03
#105000
1#
1-
1.
0%
06
02
#110000
1"
0#
10
0-
0.
1%
13
#115000
1#
1-
1.
0%
14
17
#120000
0!
0"
0#
0/
00
0-
0.
1%
15
03
#125000
1#
1-
1.
0%
16
04
18
07
11
1,
1$
#130000
1"
0#
10
0-
0.
1%
#135000
1#
1-
1.
0%
12
08
05
13
01
0,
0$
#140000
1!
0"
0#
1/
00
0-
0.
1%
03
#145000
1#
1-
1.
0%
06
02
#150000
1"
0#
10
0-
0.
1%
13
#155000
1#
1-
1.
0%
14
17
#160000
0!
0"
0#
0/
00
0-
0.
1%
15
03
#165000
1#
1-
1.
0%
16
04
18
07
11
1,
1$
#170000
1"
0#
10
0-
0.
1%
#175000
1#
1-
1.
0%
12
08
05
13
01
0,
0$
#180000
1!
0"
0#
1/
00
0-
0.
1%
03
#185000
1#
1-
1.
0%
06
02
#190000
1"
0#
10
0-
0.
1%
13
#195000
1#
1-
1.
0%
14
17
#200000
0!
0"
0#
0/
00
0-
0.
1%
15
03
#205000
1#
1-
1.
0%
16
04
18
07
11
1,
1$
#210000
1"
0#
10
0-
0.
1%
#215000
1#
1-
1.
0%
12
08
05
13
01
0,
0$
#220000
1!
0"
0#
1/
00
0-
0.
1%
03
#225000
1#
1-
1.
0%
06
02
#230000
1"
0#
10
0-
0.
1%
13
#235000
1#
1-
1.
0%
14
17
#240000
0!
0"
0#
0/
00
0-
0.
1%
15
03
#245000
1#
1-
1.
0%
16
04
18
07
11
1,
1$
#250000
1"
0#
10
0-
0.
1%
#255000
1#
1-
1.
0%
12
08
05
13
01
0,
0$
#260000
1!
0"
0#
1/
00
0-
0.
1%
03
#265000
1#
1-
1.
0%
06
02
#270000
1"
0#
10
0-
0.
1%
13
#275000
1#
1-
1.
0%
14
17
#280000
0!
0"
0#
0/
00
0-
0.
1%
15
03
#285000
1#
1-
1.
0%
16
04
18
07
11
1,
1$
#290000
1"
0#
10
0-
0.
1%
#295000
1#
1-
1.
0%
12
08
05
13
01
0,
0$
#300000
1!
0"
0#
1/
00
0-
0.
1%
03
#305000
1#
1-
1.
0%
06
02
#310000
1"
0#
10
0-
0.
1%
13
#315000
1#
1-
1.
0%
14
17
#320000
0!
0"
0#
0/
00
0-
0.
1%
15
03
#325000
1#
1-
1.
0%
16
04
18
07
11
1,
1$
#330000
1"
0#
10
0-
0.
1%
#335000
1#
1-
1.
0%
12
08
05
13
01
0,
0$
#340000
1!
0"
0#
1/
00
0-
0.
1%
03
#345000
1#
1-
1.
0%
06
02
#350000
1"
0#
10
0-
0.
1%
13
#355000
1#
1-
1.
0%
14
17
#360000
0!
0"
0#
0/
00
0-
0.
1%
15
03
#365000
1#
1-
1.
0%
16
04
18
07
11
1,
1$
#370000
1"
0#
10
0-
0.
1%
#375000
1#
1-
1.
0%
12
08
05
13
01
0,
0$
#380000
1!
0"
0#
1/
00
0-
0.
1%
03
#385000
1#
1-
1.
0%
06
02
#390000
1"
0#
10
0-
0.
1%
13
#395000
1#
1-
1.
0%
14
17
#400000
0!
0"
0#
0/
00
0-
0.
1%
15
03
#405000
1#
1-
1.
0%
16
04
18
07
11
1,
1$
#410000
1"
0#
10
0-
0.
1%
#415000
1#
1-
1.
0%
12
08
05
13
01
0,
0$
#420000
1!
0"
0#
1/
00
0-
0.
1%
03
#425000
1#
1-
1.
0%
06
02
#430000
1"
0#
10
0-
0.
1%
13
#435000
1#
1-
1.
0%
14
17
#440000
0!
0"
0#
0/
00
0-
0.
1%
15
03
#445000
1#
1-
1.
0%
16
04
18
07
11
1,
1$
#450000
1"
0#
10
0-
0.
1%
#455000
1#
1-
1.
0%
12
08
05
13
01
0,
0$
#460000
1!
0"
0#
1/
00
0-
0.
1%
03
#465000
1#
1-
1.
0%
06
02
#470000
1"
0#
10
0-
0.
1%
13
#475000
1#
1-
1.
0%
14
17
#480000
0!
0"
0#
0/
00
0-
0.
1%
15
03
#485000
1#
1-
1.
0%
16
04
18
07
11
1,
1$
#490000
1"
0#
10
0-
0.
1%
#495000
1#
1-
1.
0%
12
08
05
13
01
0,
0$
#500000
1!
0"
0#
1/
00
0-
0.
1%
03
#505000
1#
1-
1.
0%
06
02
#510000
1"
0#
10
0-
0.
1%
13
#515000
1#
1-
1.
0%
14
17
#520000
0!
0"
0#
0/
00
0-
0.
1%
15
03
#525000
1#
1-
1.
0%
16
04
18
07
11
1,
1$
#530000
1"
0#
10
0-
0.
1%
#535000
1#
1-
1.
0%
12
08
05
13
01
0,
0$
#540000
1!
0"
0#
1/
00
0-
0.
1%
03
#545000
1#
1-
1.
0%
06
02
#550000
1"
0#
10
0-
0.
1%
13
#555000
1#
1-
1.
0%
14
17
#560000
0!
0"
0#
0/
00
0-
0.
1%
15
03
#565000
1#
1-
1.
0%
16
04
18
07
11
1,
1$
#570000
1"
0#
10
0-
0.
1%
#575000
1#
1-
1.
0%
12
08
05
13
01
0,
0$
#580000
1!
0"
0#
1/
00
0-
0.
1%
03
#585000
1#
1-
1.
0%
06
02
#590000
1"
0#
10
0-
0.
1%
13
#595000
1#
1-
1.
0%
14
17
#600000
0!
0"
0#
0/
00
0-
0.
1%
15
03
#605000
1#
1-
1.
0%
16
04
18
07
11
1,
1$
#610000
1"
0#
10
0-
0.
1%
#615000
1#
1-
1.
0%
12
08
05
13
01
0,
0$
#620000
1!
0"
0#
1/
00
0-
0.
1%
03
#625000
1#
1-
1.
0%
06
02
#630000
1"
0#
10
0-
0.
1%
13
#635000
1#
1-
1.
0%
14
17
#640000
0!
0"
0#
0/
00
0-
0.
1%
15
03
#645000
1#
1-
1.
0%
16
04
18
07
11
1,
1$
#650000
1"
0#
10
0-
0.
1%
#655000
1#
1-
1.
0%
12
08
05
13
01
0,
0$
#660000
1!
0"
0#
1/
00
0-
0.
1%
03
#665000
1#
1-
1.
0%
06
02
#670000
1"
0#
10
0-
0.
1%
13
#675000
1#
1-
1.
0%
14
17
#680000
0!
0"
0#
0/
00
0-
0.
1%
15
03
#685000
1#
1-
1.
0%
16
04
18
07
11
1,
1$
#690000
1"
0#
10
0-
0.
1%
#695000
1#
1-
1.
0%
12
08
05
13
01
0,
0$
#700000
1!
0"
0#
1/
00
0-
0.
1%
03
#705000
1#
1-
1.
0%
06
02
#710000
1"
0#
10
0-
0.
1%
13
#715000
1#
1-
1.
0%
14
17
#720000
0!
0"
0#
0/
00
0-
0.
1%
15
03
#725000
1#
1-
1.
0%
16
04
18
07
11
1,
1$
#730000
1"
0#
10
0-
0.
1%
#735000
1#
1-
1.
0%
12
08
05
13
01
0,
0$
#740000
1!
0"
0#
1/
00
0-
0.
1%
03
#745000
1#
1-
1.
0%
06
02
#750000
1"
0#
10
0-
0.
1%
13
#755000
1#
1-
1.
0%
14
17
#760000
0!
0"
0#
0/
00
0-
0.
1%
15
03
#765000
1#
1-
1.
0%
16
04
18
07
11
1,
1$
#770000
1"
0#
10
0-
0.
1%
#775000
1#
1-
1.
0%
12
08
05
13
01
0,
0$
#780000
1!
0"
0#
1/
00
0-
0.
1%
03
#785000
1#
1-
1.
0%
06
02
#790000
1"
0#
10
0-
0.
1%
13
#795000
1#
1-
1.
0%
14
17
#800000
0!
0"
0#
0/
00
0-
0.
1%
15
03
#805000
1#
1-
1.
0%
16
04
18
07
11
1,
1$
#810000
1"
0#
10
0-
0.
1%
#815000
1#
1-
1.
0%
12
08
05
13
01
0,
0$
#820000
1!
0"
0#
1/
00
0-
0.
1%
03
#825000
1#
1-
1.
0%
06
02
#830000
1"
0#
10
0-
0.
1%
13
#835000
1#
1-
1.
0%
14
17
#840000
0!
0"
0#
0/
00
0-
0.
1%
15
03
#845000
1#
1-
1.
0%
16
04
18
07
11
1,
1$
#850000
1"
0#
10
0-
0.
1%
#855000
1#
1-
1.
0%
12
08
05
13
01
0,
0$
#860000
1!
0"
0#
1/
00
0-
0.
1%
03
#865000
1#
1-
1.
0%
06
02
#870000
1"
0#
10
0-
0.
1%
13
#875000
1#
1-
1.
0%
14
17
#880000
0!
0"
0#
0/
00
0-
0.
1%
15
03
#885000
1#
1-
1.
0%
16
04
18
07
11
1,
1$
#890000
1"
0#
10
0-
0.
1%
#895000
1#
1-
1.
0%
12
08
05
13
01
0,
0$
#900000
1!
0"
0#
1/
00
0-
0.
1%
03
#905000
1#
1-
1.
0%
06
02
#910000
1"
0#
10
0-
0.
1%
13
#915000
1#
1-
1.
0%
14
17
#920000
0!
0"
0#
0/
00
0-
0.
1%
15
03
#925000
1#
1-
1.
0%
16
04
18
07
11
1,
1$
#930000
1"
0#
10
0-
0.
1%
#935000
1#
1-
1.
0%
12
08
05
13
01
0,
0$
#940000
1!
0"
0#
1/
00
0-
0.
1%
03
#945000
1#
1-
1.
0%
06
02
#950000
1"
0#
10
0-
0.
1%
13
#955000
1#
1-
1.
0%
14
17
#960000
0!
0"
0#
0/
00
0-
0.
1%
15
03
#965000
1#
1-
1.
0%
16
04
18
07
11
1,
1$
#970000
1"
0#
10
0-
0.
1%
#975000
1#
1-
1.
0%
12
08
05
13
01
0,
0$
#980000
1!
0"
0#
1/
00
0-
0.
1%
03
#985000
1#
1-
1.
0%
06
02
#990000
1"
0#
10
0-
0.
1%
13
#995000
1#
1-
1.
0%
14
17
